2 Вступ у Tidyverse | ОСНОВИ ПРОГНОЗУВАННЯ В R
…
Перш за все підключимо необхідні пакети:

library(gapminder)
library(dplyr)

Виконаємо просту фільтрацію з однією умовою:

filter(gapminder, year == 2007)
## # A tibble: 142 x 6
##    country     continent  year lifeExp       pop gdpPercap
##    <fct>       <fct>     <int>   <dbl>     <int>     <dbl>
##  1 Afghanistan Asia       2007    43.8  31889923      975.
##  2 Albania     Europe     2007    76.4   3600523     5937.
##  3 Algeria     Africa     2007    72.3  33333216     6223.
##  4 Angola      Africa     2007    42.7  12420476     4797.
##  5 Argentina   Americas   2007    75.3  40301927    12779.
##  6 Australia   Oceania    2007    81.2  20434176    34435.
##  7 Austria     Europe     2007    79.8   8199783    36126.
##  8 Bahrain     Asia       2007    75.6    708573    29796.
##  9 Bangladesh  Asia       2007    64.1 150448339     1391.
## 10 Belgium     Europe     2007    79.4  10392226    33693.
## # ... with 132 more rows

Фільтрація з декількома умовами:

filter(gapminder, year == 2007, continent == "Europe")
## # A tibble: 30 x 6
##    country                continent  year lifeExp      pop gdpPercap
##    <fct>                  <fct>     <int>   <dbl>    <int>     <dbl>
##  1 Albania                Europe     2007    76.4  3600523     5937.
##  2 Austria                Europe     2007    79.8  8199783    36126.
##  3 Belgium                Europe     2007    79.4 10392226    33693.
##  4 Bosnia and Herzegovina Europe     2007    74.9  4552198     7446.
##  5 Bulgaria               Europe     2007    73.0  7322858    10681.
##  6 Croatia                Europe     2007    75.7  4493312    14619.
##  7 Czech Republic         Europe     2007    76.5 10228744    22833.
##  8 Denmark                Europe     2007    78.3  5468120    35278.
##  9 Finland                Europe     2007    79.3  5238460    33207.
## 10 France                 Europe     2007    80.7 61083916    30470.
## # ... with 20 more rows

Умов фільтрації можна додавати безліч, їх можна перелічити через кому. Але створювати складні фільтрації можна у більш компактній формі. Для цього можна використати оператори: “ТА” (&), “АБО” (|), “НЕ” (!), а також функцію xor(), яка виключає АБО:

filter(gapminder, year == 2007 & country == "New Zealand")
## # A tibble: 1 x 6
##   country     continent  year lifeExp     pop gdpPercap
##   <fct>       <fct>     <int>   <dbl>   <int>     <dbl>
## 1 New Zealand Oceania    2007    80.2 4115771    25185.

filter(gapminder, year == 2002 | year == 2007)
## # A tibble: 284 x 6
##    country     continent  year lifeExp      pop gdpPercap
##    <fct>       <fct>     <int>   <dbl>    <int>     <dbl>
##  1 Afghanistan Asia       2002    42.1 25268405      727.
##  2 Afghanistan Asia       2007    43.8 31889923      975.
##  3 Albania     Europe     2002    75.7  3508512     4604.
##  4 Albania     Europe     2007    76.4  3600523     5937.
##  5 Algeria     Africa     2002    71.0 31287142     5288.
##  6 Algeria     Africa     2007    72.3 33333216     6223.
##  7 Angola      Africa     2002    41.0 10866106     2773.
##  8 Angola      Africa     2007    42.7 12420476     4797.
##  9 Argentina   Americas   2002    74.3 38331121     8798.
## 10 Argentina   Americas   2007    75.3 40301927    12779.
## # ... with 274 more rows
…
filter(gapminder, year == 2007 & country %in% c("New Zealand", "Poland", "Ireland"))
## # A tibble: 3 x 6
##   country     continent  year lifeExp      pop gdpPercap
##   <fct>       <fct>     <int>   <dbl>    <int>     <dbl>
## 1 Ireland     Europe     2007    78.9  4109086    40676.
## 2 New Zealand Oceania    2007    80.2  4115771    25185.
## 3 Poland      Europe     2007    75.6 38518241    15390.

2.3.2 Відбір стовпчиків - select()

Функція select() дозволяє відібрати тільки ті змінні, які нас цікавлять. Як і минулого разу, перший аргумент функції — це дата фрейм, наступний — обрані стовпці:

select(gapminder, country, year, gdpPercap)
## # A tibble: 1,704 x 3
##    country      year gdpPercap
##    <fct>       <int>     <dbl>
##  1 Afghanistan  1952      779.
##  2 Afghanistan  1957      821.
##  3 Afghanistan  1962      853.
##  4 Afghanistan  1967      836.
##  5 Afghanistan  1972      740.
##  6 Afghanistan  1977      786.
##  7 Afghanistan  1982      978.
##  8 Afghanistan  1987      852.
##  9 Afghanistan  1992      649.
## 10 Afghanistan  1997      635.
## # ... with 1,694 more rows

Крім того не обов’язково вказувати назви змінних, можна вказувати їх порядковий номер:

select(gapminder, 1, 3, 5)
## # A tibble: 1,704 x 3
##    country      year      pop
##    <fct>       <int>    <int>
##  1 Afghanistan  1952  8425333
##  2 Afghanistan  1957  9240934
##  3 Afghanistan  1962 10267083
##  4 Afghanistan  1967 11537966
##  5 Afghanistan  1972 13079460
##  6 Afghanistan  1977 14880372
##  7 Afghanistan  1982 12881816
##  8 Afghanistan  1987 13867957
##  9 Afghanistan  1992 16317921
## 10 Afghanistan  1997 22227415
## # ... with 1,694 more rows

Або вказувати їх послідовність у векторі:

select(gapminder, c(1, 4:6))
## # A tibble: 1,704 x 4
##    country     lifeExp      pop gdpPercap
##    <fct>         <dbl>    <int>     <dbl>
##  1 Afghanistan    28.8  8425333      779.
##  2 Afghanistan    30.3  9240934      821.
##  3 Afghanistan    32.0 10267083      853.
##  4 Afghanistan    34.0 11537966      836.
##  5 Afghanistan    36.1 13079460      740.
##  6 Afghanistan    38.4 14880372      786.
##  7 Afghanistan    39.9 12881816      978.
##  8 Afghanistan    40.8 13867957      852.
##  9 Afghanistan    41.7 16317921      649.
## 10 Afghanistan    41.8 22227415      635.
## # ... with 1,694 more rows

Аналогічно, послідовність буде працювати і для назв стовпців:

select(gapminder, c(country, lifeExp:gdpPercap))
## # A tibble: 1,704 x 4
##    country     lifeExp      pop gdpPercap
##    <fct>         <dbl>    <int>     <dbl>
##  1 Afghanistan    28.8  8425333      779.
##  2 Afghanistan    30.3  9240934      821.
##  3 Afghanistan    32.0 10267083      853.
##  4 Afghanistan    34.0 11537966      836.
##  5 Afghanistan    36.1 13079460      740.
##  6 Afghanistan    38.4 14880372      786.
##  7 Afghanistan    39.9 12881816      978.
##  8 Afghanistan    40.8 13867957      852.
##  9 Afghanistan    41.7 16317921      649.
## 10 Afghanistan    41.8 22227415      635.
## # ... with 1,694 more rows

Функція everything() повертає всі стовпчики, але не буде повертати вже обрані стовпчики. Тому її можна використовувати для зміни позицій змінних в дата фреймі. Хоча в більшості випадків зручніше для таких задач використовувати функцію relocate().

select(gapminder, continent, everything())
## # A tibble: 1,704 x 6
##    continent country      year lifeExp      pop gdpPercap
##    <fct>     <fct>       <int>   <dbl>    <int>     <dbl>
##  1 Asia      Afghanistan  1952    28.8  8425333      779.
##  2 Asia      Afghanistan  1957    30.3  9240934      821.
##  3 Asia      Afghanistan  1962    32.0 10267083      853.
##  4 Asia      Afghanistan  1967    34.0 11537966      836.
##  5 Asia      Afghanistan  1972    36.1 13079460      740.
##  6 Asia      Afghanistan  1977    38.4 14880372      786.
##  7 Asia      Afghanistan  1982    39.9 12881816      978.
##  8 Asia      Afghanistan  1987    40.8 13867957      852.
##  9 Asia      Afghanistan  1992    41.7 16317921      649.
## 10 Asia      Afghanistan  1997    41.8 22227415      635.
## # ... with 1,694 more rows

За допомогою таких функцій як starts_with(), ends_with(), contains(), matches() можна відбирати стовпчики за певним патерном у назві.

Виберемо стовпчики, назва яких починається на латинську літеру “с”

select(gapminder, starts_with("c"))
## # A tibble: 1,704 x 2
##    country     continent
##    <fct>       <fct>    
##  1 Afghanistan Asia     
##  2 Afghanistan Asia     
##  3 Afghanistan Asia     
##  4 Afghanistan Asia     
##  5 Afghanistan Asia     
##  6 Afghanistan Asia     
##  7 Afghanistan Asia     
##  8 Afghanistan Asia     
##  9 Afghanistan Asia     
## 10 Afghanistan Asia     
## # ... with 1,694 more rows

Або стовпчики, назва яких закінчується на латинську літеру “p”

select(gapminder, ends_with("p"))
## # A tibble: 1,704 x 3
##    lifeExp      pop gdpPercap
##      <dbl>    <int>     <dbl>
##  1    28.8  8425333      779.
##  2    30.3  9240934      821.
##  3    32.0 10267083      853.
##  4    34.0 11537966      836.
##  5    36.1 13079460      740.
##  6    38.4 14880372      786.
##  7    39.9 12881816      978.
##  8    40.8 13867957      852.
##  9    41.7 16317921      649.
## 10    41.8 22227415      635.
## # ... with 1,694 more rows

Стовпчики, назва яких містить на латинську літеру “o”

select(gapminder, contains("o"))
## # A tibble: 1,704 x 3
##    country     continent      pop
##    <fct>       <fct>        <int>
##  1 Afghanistan Asia       8425333
##  2 Afghanistan Asia       9240934
##  3 Afghanistan Asia      10267083
##  4 Afghanistan Asia      11537966
##  5 Afghanistan Asia      13079460
##  6 Afghanistan Asia      14880372
##  7 Afghanistan Asia      12881816
##  8 Afghanistan Asia      13867957
##  9 Afghanistan Asia      16317921
## 10 Afghanistan Asia      22227415
## # ... with 1,694 more rows

Функція matches() використовується для відбору за регулярними виразами, з якими можна ознайомитися у книзі “Mastering Regular Expressions” (Friedl 2006).

Відбір стовпчиків за їх типом даних виконується за допомогою функції select_if():

select_if(gapminder, is.numeric)
## # A tibble: 1,704 x 4
##     year lifeExp      pop gdpPercap
##    <int>   <dbl>    <int>     <dbl>
##  1  1952    28.8  8425333      779.
##  2  1957    30.3  9240934      821.
##  3  1962    32.0 10267083      853.
##  4  1967    34.0 11537966      836.
##  5  1972    36.1 13079460      740.
##  6  1977    38.4 14880372      786.
##  7  1982    39.9 12881816      978.
##  8  1987    40.8 13867957      852.
##  9  1992    41.7 16317921      649.
## 10  1997    41.8 22227415      635.
## # ... with 1,694 more rows

2.3.3 Зміна назви стовпчиків - rename()

Для зміни назви стовпчиків використовується функція rename(). Синтаксис функції: нова_назва = стара_назва.

rename(gapminder, population = pop)
## # A tibble: 1,704 x 6
##    country     continent  year lifeExp population gdpPercap
##    <fct>       <fct>     <int>   <dbl>      <int>     <dbl>
##  1 Afghanistan Asia       1952    28.8    8425333      779.
##  2 Afghanistan Asia       1957    30.3    9240934      821.
##  3 Afghanistan Asia       1962    32.0   10267083      853.
##  4 Afghanistan Asia       1967    34.0   11537966      836.
##  5 Afghanistan Asia       1972    36.1   13079460      740.
##  6 Afghanistan Asia       1977    38.4   14880372      786.
##  7 Afghanistan Asia       1982    39.9   12881816      978.
##  8 Afghanistan Asia       1987    40.8   13867957      852.
##  9 Afghanistan Asia       1992    41.7   16317921      649.
## 10 Afghanistan Asia       1997    41.8   22227415      635.
## # ... with 1,694 more rows

Замість старої назви можна вказати порядковий номер стовпчика:

rename(gapminder, population = 5)
## # A tibble: 1,704 x 6
##    country     continent  year lifeExp population gdpPercap
##    <fct>       <fct>     <int>   <dbl>      <int>     <dbl>
##  1 Afghanistan Asia       1952    28.8    8425333      779.
##  2 Afghanistan Asia       1957    30.3    9240934      821.
##  3 Afghanistan Asia       1962    32.0   10267083      853.
##  4 Afghanistan Asia       1967    34.0   11537966      836.
##  5 Afghanistan Asia       1972    36.1   13079460      740.
##  6 Afghanistan Asia       1977    38.4   14880372      786.
##  7 Afghanistan Asia       1982    39.9   12881816      978.
##  8 Afghanistan Asia       1987    40.8   13867957      852.
##  9 Afghanistan Asia       1992    41.7   16317921      649.
## 10 Afghanistan Asia       1997    41.8   22227415      635.
## # ... with 1,694 more rows

Змінити назву стовпчика за певною умовою можна за допомогою функції rename_with(). Наприклад, записати всі назви великими літерами:

rename_with(gapminder, toupper)
## # A tibble: 1,704 x 6
##    COUNTRY     CONTINENT  YEAR LIFEEXP      POP GDPPERCAP
##    <fct>       <fct>     <int>   <dbl>    <int>     <dbl>
##  1 Afghanistan Asia       1952    28.8  8425333      779.
##  2 Afghanistan Asia       1957    30.3  9240934      821.
##  3 Afghanistan Asia       1962    32.0 10267083      853.
##  4 Afghanistan Asia       1967    34.0 11537966      836.
##  5 Afghanistan Asia       1972    36.1 13079460      740.
##  6 Afghanistan Asia       1977    38.4 14880372      786.
##  7 Afghanistan Asia       1982    39.9 12881816      978.
##  8 Afghanistan Asia       1987    40.8 13867957      852.
##  9 Afghanistan Asia       1992    41.7 16317921      649.
## 10 Afghanistan Asia       1997    41.8 22227415      635.
## # ... with 1,694 more rows

Стовпчики, які починаються на латинську “c” записати великими літерами:

rename_with(gapminder, toupper, starts_with("c"))
## # A tibble: 1,704 x 6
##    COUNTRY     CONTINENT  year lifeExp      pop gdpPercap
##    <fct>       <fct>     <int>   <dbl>    <int>     <dbl>
##  1 Afghanistan Asia       1952    28.8  8425333      779.
##  2 Afghanistan Asia       1957    30.3  9240934      821.
##  3 Afghanistan Asia       1962    32.0 10267083      853.
##  4 Afghanistan Asia       1967    34.0 11537966      836.
##  5 Afghanistan Asia       1972    36.1 13079460      740.
##  6 Afghanistan Asia       1977    38.4 14880372      786.
##  7 Afghanistan Asia       1982    39.9 12881816      978.
##  8 Afghanistan Asia       1987    40.8 13867957      852.
##  9 Afghanistan Asia       1992    41.7 16317921      649.
## 10 Afghanistan Asia       1997    41.8 22227415      635.
## # ... with 1,694 more rows

Більш складний варіант, але дуже часто вживаний — заміна певного символу або частини в назві. Такі варіанти зустрічаються, коли в назвах стовпчиків зустрічаються зайві “пробіли.” В нашому дата фреймі з цим все добре, але для прикладу замінемо всі “co” на “CO”

rename_with(gapminder, ~ gsub("co", "CO", .x))
## # A tibble: 1,704 x 6
##    COuntry     COntinent  year lifeExp      pop gdpPercap
##    <fct>       <fct>     <int>   <dbl>    <int>     <dbl>
##  1 Afghanistan Asia       1952    28.8  8425333      779.
##  2 Afghanistan Asia       1957    30.3  9240934      821.
##  3 Afghanistan Asia       1962    32.0 10267083      853.
##  4 Afghanistan Asia       1967    34.0 11537966      836.
##  5 Afghanistan Asia       1972    36.1 13079460      740.
##  6 Afghanistan Asia       1977    38.4 14880372      786.
##  7 Afghanistan Asia       1982    39.9 12881816      978.
##  8 Afghanistan Asia       1987    40.8 13867957      852.
##  9 Afghanistan Asia       1992    41.7 16317921      649.
## 10 Afghanistan Asia       1997    41.8 22227415      635.
## # ... with 1,694 more rows
…
Взагалі, з приводу оформлення tidy-коду бажано ознайомитися з матеріалами Хедлі Вікема (Wickham 2021)

Майже весь наступний код я буду писати вже з використанням %>%.

2.3.5 Створення нових стовпчиків - mutate()

Для створення нових стовпчиків використовується функція mutate(). Вона завжди додає нові стовпчики в кінець дата фрейму.

Розрахуємо загальний ВВП країни світу в мільярдах доларів США та додамо ще одну змінну country_group, яка буде характеризувати рівень ВВП країни (більше 250 млрд — високий, менше — нормальний). Для цього перемножимо ВВП на душу населення на кількість населення та поділимо на 1000000000, після чого використаємо функцію if_else (аналог “=ЕСЛИ” з Excel).

gapminder %>% 
  mutate(GDP_billion = gdpPercap * pop / 10^9,
         country_group = if_else(GDP_billion > 250, "hight_gpd", "normal_gdp")) %>% 
  filter(year == 2007)
## # A tibble: 142 x 8
##    country     continent  year lifeExp       pop gdpPercap GDP_billion country_group
##    <fct>       <fct>     <int>   <dbl>     <int>     <dbl>       <dbl> <chr>        
##  1 Afghanistan Asia       2007    43.8  31889923      975.        31.1 normal_gdp   
##  2 Albania     Europe     2007    76.4   3600523     5937.        21.4 normal_gdp   
##  3 Algeria     Africa     2007    72.3  33333216     6223.       207.  normal_gdp   
##  4 Angola      Africa     2007    42.7  12420476     4797.        59.6 normal_gdp   
##  5 Argentina   Americas   2007    75.3  40301927    12779.       515.  hight_gpd    
##  6 Australia   Oceania    2007    81.2  20434176    34435.       704.  hight_gpd    
##  7 Austria     Europe     2007    79.8   8199783    36126.       296.  hight_gpd    
##  8 Bahrain     Asia       2007    75.6    708573    29796.        21.1 normal_gdp   
##  9 Bangladesh  Asia       2007    64.1 150448339     1391.       209.  normal_gdp   
## 10 Belgium     Europe     2007    79.4  10392226    33693.       350.  hight_gpd    
## # ... with 132 more rows

Звертаю увагу, що останній стовпчик country_group був створений за допомогою попереднього нового стовпчика GDP_billion.

Також можна проводити різноманітні маніпуляції з цілою низкою стовпчиків за допомогою функцій across() та where(). Наприклад, розрахуємо натуральний логарифм до всіх числових стовпчиків:

gapminder %>% 
  mutate(across(where(is.numeric), log))
## # A tibble: 1,704 x 6
##    country     continent  year lifeExp   pop gdpPercap
##    <fct>       <fct>     <dbl>   <dbl> <dbl>     <dbl>
##  1 Afghanistan Asia       7.58    3.36  15.9      6.66
##  2 Afghanistan Asia       7.58    3.41  16.0      6.71
##  3 Afghanistan Asia       7.58    3.47  16.1      6.75
##  4 Afghanistan Asia       7.58    3.53  16.3      6.73
##  5 Afghanistan Asia       7.59    3.59  16.4      6.61
##  6 Afghanistan Asia       7.59    3.65  16.5      6.67
##  7 Afghanistan Asia       7.59    3.69  16.4      6.89
##  8 Afghanistan Asia       7.59    3.71  16.4      6.75
##  9 Afghanistan Asia       7.60    3.73  16.6      6.48
## 10 Afghanistan Asia       7.60    3.73  16.9      6.45
## # ... with 1,694 more rows

Або запишемо всі категоріальні змінні з великої літери:

gapminder %>% 
  mutate(across(where(is.factor), toupper))
## # A tibble: 1,704 x 6
##    country     continent  year lifeExp      pop gdpPercap
##    <chr>       <chr>     <int>   <dbl>    <int>     <dbl>
##  1 AFGHANISTAN ASIA       1952    28.8  8425333      779.
##  2 AFGHANISTAN ASIA       1957    30.3  9240934      821.
##  3 AFGHANISTAN ASIA       1962    32.0 10267083      853.
##  4 AFGHANISTAN ASIA       1967    34.0 11537966      836.
##  5 AFGHANISTAN ASIA       1972    36.1 13079460      740.
##  6 AFGHANISTAN ASIA       1977    38.4 14880372      786.
##  7 AFGHANISTAN ASIA       1982    39.9 12881816      978.
##  8 AFGHANISTAN ASIA       1987    40.8 13867957      852.
##  9 AFGHANISTAN ASIA       1992    41.7 16317921      649.
## 10 AFGHANISTAN ASIA       1997    41.8 22227415      635.
## # ... with 1,694 more rows

Для того, щоб залишити лише “новостворені” стовпчики використовується функція tranmutate():

gapminder %>% 
  transmute(GDP_billion = gdpPercap * pop / 10^9)
## # A tibble: 1,704 x 1
##    GDP_billion
##          <dbl>
##  1        6.57
##  2        7.59
##  3        8.76
##  4        9.65
##  5        9.68
##  6       11.7 
##  7       12.6 
##  8       11.8 
##  9       10.6 
## 10       14.1 
## # ... with 1,694 more rows
…
