3 Часові ряди та їх візуалізація | ОСНОВИ ПРОГНОЗУВАННЯ В R
…
.drop — логічний аргумент, якщо вказати TRUE з таблиці будуть виключені спостереження, для яких не має групуючого значення key;

tz — вказується часовий пояс спостережень;

pivot_longer — логічний аргумент, TRUE переводить дані в широкий формат, FALSE залишає як є.

Перетворемо базовий часовий ряд AirPassengers з ts в tsibble:

class(AirPassengers)
## [1] "ts"

AirPassengers %>% 
  as_tsibble()
## # A tsibble: 144 x 2 [1M]
##         index value
##         <mth> <dbl>
##  1  1949 янв.   112
##  2 1949 февр.   118
##  3  1949 март   132
##  4  1949 апр.   129
##  5   1949 май   121
##  6  1949 июнь   135
##  7  1949 июль   148
##  8  1949 авг.   148
##  9 1949 сент.   136
## 10  1949 окт.   119
## # ... with 134 more rows

Бачимо, що набір даних містить 144 щомісячних (1M) спостереження.

Розглянемо приклад перетворення дата фрейму gapminder у tsibble:

gapminder %>% 
  as_tsibble(key = c(country, continent),
             index = year)
## # A tsibble: 1,704 x 6 [5Y]
## # Key:       country, continent [142]
##    country     continent  year lifeExp      pop gdpPercap
##    <fct>       <fct>     <int>   <dbl>    <int>     <dbl>
##  1 Afghanistan Asia       1952    28.8  8425333      779.
##  2 Afghanistan Asia       1957    30.3  9240934      821.
##  3 Afghanistan Asia       1962    32.0 10267083      853.
##  4 Afghanistan Asia       1967    34.0 11537966      836.
##  5 Afghanistan Asia       1972    36.1 13079460      740.
##  6 Afghanistan Asia       1977    38.4 14880372      786.
##  7 Afghanistan Asia       1982    39.9 12881816      978.
##  8 Afghanistan Asia       1987    40.8 13867957      852.
##  9 Afghanistan Asia       1992    41.7 16317921      649.
## 10 Afghanistan Asia       1997    41.8 22227415      635.
## # ... with 1,694 more rows
…
